{"failedCount":1,"prefixedPath":"src\/test\/java\/examples\/users\/getapiwithquery.feature","packageQualifiedName":"src.test.java.examples.users.getapiwithquery","loopIndex":-1,"relativePath":"src\/test\/java\/examples\/users\/getapiwithquery.feature","scenarioResults":[{"sectionIndex":0,"stepResults":[{"result":{"nanos":39846200,"millis":39.8462,"status":"passed"},"step":{"line":5,"prefix":"*","index":0,"text":"def query = {status:'active',gender:'male'}"},"stepLog":"11:23:04.111 karate.env system property was: null \n"},{"result":{"nanos":6242500,"millis":6.2425,"status":"passed"},"step":{"line":6,"prefix":"Given","index":1,"text":"url baseUrl+'\/public\/v1\/users'"}},{"result":{"nanos":5452800,"millis":5.4528,"status":"passed"},"step":{"line":7,"prefix":"And","index":2,"text":"params query"}},{"result":{"nanos":702626400,"millis":702.6264,"status":"passed"},"step":{"line":8,"prefix":"When","index":3,"text":"method Get"},"stepLog":"11:23:04.474 request:\n1 > GET https:\/\/gorest.co.in\/public\/v1\/users?gender=male&status=active\n1 > Host: gorest.co.in\n1 > Connection: Keep-Alive\n1 > User-Agent: Apache-HttpClient\/4.5.13 (Java\/17.0.4.1)\n1 > Accept-Encoding: gzip,deflate\n\n\n11:23:04.896 response time in milliseconds: 420\n1 < 200\n1 < Date: Thu, 09 Mar 2023 05:53:04 GMT\n1 < Content-Type: application\/json; charset=utf-8\n1 < Transfer-Encoding: chunked\n1 < Connection: keep-alive\n1 < Cache-Control: max-age=0, private, must-revalidate\n1 < etag: W\/\"fc772c78fd8868e40742cdb0d8a6fb15\"\n1 < referrer-policy: strict-origin-when-cross-origin\n1 < vary: Origin\n1 < x-content-type-options: nosniff\n1 < x-download-options: noopen\n1 < x-frame-options: SAMEORIGIN\n1 < x-permitted-cross-domain-policies: none\n1 < x-request-id: e2c96511-ab03-4798-bebd-4d8f714aa348\n1 < x-runtime: 0.023619\n1 < x-xss-protection: 0\n1 < CF-Cache-Status: DYNAMIC\n1 < Report-To: {\"endpoints\":[{\"url\":\"https:\\\/\\\/a.nel.cloudflare.com\\\/report\\\/v3?s=FsaWyeMdn%2BL%2B9Cl%2F%2FLhEaqNI5nd5kHyn2Oop6HwnOmRF2LGL0KlcR5e7pPDtKiBqbUAkzz87l6lEs0IM4XuBFuxfO3Q6s23QReKbZanjLj7rH7TlCclaf54xq19tJSk%3D\"}],\"group\":\"cf-nel\",\"max_age\":604800}\n1 < NEL: {\"success_fraction\":0,\"report_to\":\"cf-nel\",\"max_age\":604800}\n1 < Server: cloudflare\n1 < CF-RAY: 7a510e34ca7840a9-SIN\n1 < alt-svc: h3=\":443\"; ma=86400, h3-29=\":443\"; ma=86400\n{\"meta\":{\"pagination\":{\"total\":615,\"pages\":62,\"page\":1,\"limit\":10,\"links\":{\"previous\":null,\"current\":\"https:\/\/gorest.co.in\/public\/v1\/users?page=1\",\"next\":\"https:\/\/gorest.co.in\/public\/v1\/users?page=2\"}}},\"data\":[{\"id\":897852,\"name\":\"Nirbhay Tandon\",\"email\":\"nirbhay_tandon@schiller-effertz.info\",\"gender\":\"male\",\"status\":\"active\"},{\"id\":897851,\"name\":\"Kanak Prajapat\",\"email\":\"kanak_prajapat@hane.biz\",\"gender\":\"male\",\"status\":\"active\"},{\"id\":897848,\"name\":\"Anamika Gowda DVM\",\"email\":\"dvm_anamika_gowda@farrell.com\",\"gender\":\"male\",\"status\":\"active\"},{\"id\":897839,\"name\":\"Kumuda Bharadwaj\",\"email\":\"kumuda_bharadwaj@wyman.org\",\"gender\":\"male\",\"status\":\"active\"},{\"id\":872823,\"name\":\"Sen. Shobhana Pandey\",\"email\":\"shobhana_sen_pandey@cole.org\",\"gender\":\"male\",\"status\":\"active\"},{\"id\":872821,\"name\":\"Ojaswini Nayar\",\"email\":\"nayar_ojaswini@swaniawski.biz\",\"gender\":\"male\",\"status\":\"active\"},{\"id\":872820,\"name\":\"Amb. Dharani Jha\",\"email\":\"jha_amb_dharani@swift.io\",\"gender\":\"male\",\"status\":\"active\"},{\"id\":872819,\"name\":\"Bhadran Namboothiri\",\"email\":\"bhadran_namboothiri@powlowski.net\",\"gender\":\"male\",\"status\":\"active\"},{\"id\":872815,\"name\":\"Mayoor Ahuja\",\"email\":\"mayoor_ahuja@thompson-mcdermott.com\",\"gender\":\"male\",\"status\":\"active\"},{\"id\":872807,\"name\":\"Ritesh Dubashi\",\"email\":\"dubashi_ritesh@bashirian.name\",\"gender\":\"male\",\"status\":\"active\"}]}\n\n"},{"result":{"nanos":18100,"millis":0.0181,"status":"passed"},"step":{"line":9,"prefix":"Then","index":4,"text":"status 200"}},{"result":{"nanos":2498600,"millis":2.4986,"status":"passed"},"step":{"line":10,"prefix":"*","index":5,"text":"print response"},"stepLog":"11:23:04.903 [print] {\n  \"meta\": {\n    \"pagination\": {\n      \"total\": 615,\n      \"pages\": 62,\n      \"page\": 1,\n      \"limit\": 10,\n      \"links\": {\n        \"previous\": null,\n        \"current\": \"https:\/\/gorest.co.in\/public\/v1\/users?page=1\",\n        \"next\": \"https:\/\/gorest.co.in\/public\/v1\/users?page=2\"\n      }\n    }\n  },\n  \"data\": [\n    {\n      \"id\": 897852,\n      \"name\": \"Nirbhay Tandon\",\n      \"email\": \"nirbhay_tandon@schiller-effertz.info\",\n      \"gender\": \"male\",\n      \"status\": \"active\"\n    },\n    {\n      \"id\": 897851,\n      \"name\": \"Kanak Prajapat\",\n      \"email\": \"kanak_prajapat@hane.biz\",\n      \"gender\": \"male\",\n      \"status\": \"active\"\n    },\n    {\n      \"id\": 897848,\n      \"name\": \"Anamika Gowda DVM\",\n      \"email\": \"dvm_anamika_gowda@farrell.com\",\n      \"gender\": \"male\",\n      \"status\": \"active\"\n    },\n    {\n      \"id\": 897839,\n      \"name\": \"Kumuda Bharadwaj\",\n      \"email\": \"kumuda_bharadwaj@wyman.org\",\n      \"gender\": \"male\",\n      \"status\": \"active\"\n    },\n    {\n      \"id\": 872823,\n      \"name\": \"Sen. Shobhana Pandey\",\n      \"email\": \"shobhana_sen_pandey@cole.org\",\n      \"gender\": \"male\",\n      \"status\": \"active\"\n    },\n    {\n      \"id\": 872821,\n      \"name\": \"Ojaswini Nayar\",\n      \"email\": \"nayar_ojaswini@swaniawski.biz\",\n      \"gender\": \"male\",\n      \"status\": \"active\"\n    },\n    {\n      \"id\": 872820,\n      \"name\": \"Amb. Dharani Jha\",\n      \"email\": \"jha_amb_dharani@swift.io\",\n      \"gender\": \"male\",\n      \"status\": \"active\"\n    },\n    {\n      \"id\": 872819,\n      \"name\": \"Bhadran Namboothiri\",\n      \"email\": \"bhadran_namboothiri@powlowski.net\",\n      \"gender\": \"male\",\n      \"status\": \"active\"\n    },\n    {\n      \"id\": 872815,\n      \"name\": \"Mayoor Ahuja\",\n      \"email\": \"mayoor_ahuja@thompson-mcdermott.com\",\n      \"gender\": \"male\",\n      \"status\": \"active\"\n    },\n    {\n      \"id\": 872807,\n      \"name\": \"Ritesh Dubashi\",\n      \"email\": \"dubashi_ritesh@bashirian.name\",\n      \"gender\": \"male\",\n      \"status\": \"active\"\n    }\n  ]\n}\n \n"}],"executorName":"main","line":3,"name":"get all active users","description":"","durationMillis":756.6846,"startTime":1678341183930,"failed":false,"refId":"[1:3]","endTime":1678341184903,"exampleIndex":-1},{"sectionIndex":1,"stepResults":[{"result":{"nanos":243100,"millis":0.2431,"status":"passed"},"step":{"line":14,"prefix":"*","index":0,"text":"def query = {status:'active'}"},"stepLog":"11:23:04.908 karate.env system property was: null \n"},{"result":{"nanos":510200,"millis":0.5102,"status":"passed"},"step":{"line":15,"prefix":"Given","index":1,"text":"url baseUrl+'\/public\/v1\/users'"}},{"result":{"nanos":165800,"millis":0.1658,"status":"passed"},"step":{"line":16,"prefix":"And","index":2,"text":"params query"}},{"result":{"nanos":400487900,"millis":400.4879,"status":"passed"},"step":{"line":17,"prefix":"When","index":3,"text":"method Get"},"stepLog":"11:23:04.911 request:\n1 > GET https:\/\/gorest.co.in\/public\/v1\/users?status=active\n1 > Host: gorest.co.in\n1 > Connection: Keep-Alive\n1 > User-Agent: Apache-HttpClient\/4.5.13 (Java\/17.0.4.1)\n1 > Accept-Encoding: gzip,deflate\n\n\n11:23:05.309 response time in milliseconds: 397\n1 < 200\n1 < Date: Thu, 09 Mar 2023 05:53:05 GMT\n1 < Content-Type: application\/json; charset=utf-8\n1 < Transfer-Encoding: chunked\n1 < Connection: keep-alive\n1 < Cache-Control: max-age=0, private, must-revalidate\n1 < etag: W\/\"14358d2f3aaaa20913308f139e3e8b25\"\n1 < referrer-policy: strict-origin-when-cross-origin\n1 < vary: Origin\n1 < x-content-type-options: nosniff\n1 < x-download-options: noopen\n1 < x-frame-options: SAMEORIGIN\n1 < x-permitted-cross-domain-policies: none\n1 < x-request-id: 1e1c8777-ad00-4af3-bcc3-8a2e1bf29656\n1 < x-runtime: 0.020840\n1 < x-xss-protection: 0\n1 < CF-Cache-Status: DYNAMIC\n1 < Report-To: {\"endpoints\":[{\"url\":\"https:\\\/\\\/a.nel.cloudflare.com\\\/report\\\/v3?s=THfqu8GUtLxZF1dByHBdgmPnoisrsiEKqupNkZV9GhsTv90CCpV9JTuxaNOtRjyuz7ZxJOrdLzCm5aJJztFvEEiTc9%2Bm0P67z9%2BlbuVBxeTg2%2B9xFfwK4TRSBgM5F2k%3D\"}],\"group\":\"cf-nel\",\"max_age\":604800}\n1 < NEL: {\"success_fraction\":0,\"report_to\":\"cf-nel\",\"max_age\":604800}\n1 < Server: cloudflare\n1 < CF-RAY: 7a510e36be706ba4-SIN\n1 < alt-svc: h3=\":443\"; ma=86400, h3-29=\":443\"; ma=86400\n{\"meta\":{\"pagination\":{\"total\":1236,\"pages\":124,\"page\":1,\"limit\":10,\"links\":{\"previous\":null,\"current\":\"https:\/\/gorest.co.in\/public\/v1\/users?page=1\",\"next\":\"https:\/\/gorest.co.in\/public\/v1\/users?page=2\"}}},\"data\":[{\"id\":904396,\"name\":\"Gopee Nehru\",\"email\":\"gopee_nehru@kiehn.info\",\"gender\":\"female\",\"status\":\"active\"},{\"id\":897852,\"name\":\"Nirbhay Tandon\",\"email\":\"nirbhay_tandon@schiller-effertz.info\",\"gender\":\"male\",\"status\":\"active\"},{\"id\":897851,\"name\":\"Kanak Prajapat\",\"email\":\"kanak_prajapat@hane.biz\",\"gender\":\"male\",\"status\":\"active\"},{\"id\":897848,\"name\":\"Anamika Gowda DVM\",\"email\":\"dvm_anamika_gowda@farrell.com\",\"gender\":\"male\",\"status\":\"active\"},{\"id\":897843,\"name\":\"Aaryan Dhawan\",\"email\":\"dhawan_aaryan@hintz.net\",\"gender\":\"female\",\"status\":\"active\"},{\"id\":897841,\"name\":\"Chandramohan Desai\",\"email\":\"desai_chandramohan@nicolas.net\",\"gender\":\"female\",\"status\":\"active\"},{\"id\":897839,\"name\":\"Kumuda Bharadwaj\",\"email\":\"kumuda_bharadwaj@wyman.org\",\"gender\":\"male\",\"status\":\"active\"},{\"id\":873396,\"name\":\"Chandrabhan Chattopadhyay\",\"email\":\"chattopadhyay_chandrabhan@zemlak.io\",\"gender\":\"female\",\"status\":\"active\"},{\"id\":873389,\"name\":\"Dr. Charvi Gupta\",\"email\":\"gupta_dr_charvi@daugherty.co\",\"gender\":\"female\",\"status\":\"active\"},{\"id\":873388,\"name\":\"Mr. Sher Tagore\",\"email\":\"tagore_mr_sher@rosenbaum-dibbert.net\",\"gender\":\"female\",\"status\":\"active\"}]}\n\n"},{"result":{"nanos":18700,"millis":0.0187,"status":"passed"},"step":{"line":18,"prefix":"Then","index":4,"text":"status 200"}},{"result":{"nanos":354800,"millis":0.3548,"status":"passed"},"step":{"line":19,"prefix":"*","index":5,"text":"def jsonResponse = response"}},{"result":{"nanos":1380100,"millis":1.3801,"status":"passed"},"step":{"line":20,"prefix":"*","index":6,"text":"print jsonResponse"},"stepLog":"11:23:05.313 [print] {\n  \"meta\": {\n    \"pagination\": {\n      \"total\": 1236,\n      \"pages\": 124,\n      \"page\": 1,\n      \"limit\": 10,\n      \"links\": {\n        \"previous\": null,\n        \"current\": \"https:\/\/gorest.co.in\/public\/v1\/users?page=1\",\n        \"next\": \"https:\/\/gorest.co.in\/public\/v1\/users?page=2\"\n      }\n    }\n  },\n  \"data\": [\n    {\n      \"id\": 904396,\n      \"name\": \"Gopee Nehru\",\n      \"email\": \"gopee_nehru@kiehn.info\",\n      \"gender\": \"female\",\n      \"status\": \"active\"\n    },\n    {\n      \"id\": 897852,\n      \"name\": \"Nirbhay Tandon\",\n      \"email\": \"nirbhay_tandon@schiller-effertz.info\",\n      \"gender\": \"male\",\n      \"status\": \"active\"\n    },\n    {\n      \"id\": 897851,\n      \"name\": \"Kanak Prajapat\",\n      \"email\": \"kanak_prajapat@hane.biz\",\n      \"gender\": \"male\",\n      \"status\": \"active\"\n    },\n    {\n      \"id\": 897848,\n      \"name\": \"Anamika Gowda DVM\",\n      \"email\": \"dvm_anamika_gowda@farrell.com\",\n      \"gender\": \"male\",\n      \"status\": \"active\"\n    },\n    {\n      \"id\": 897843,\n      \"name\": \"Aaryan Dhawan\",\n      \"email\": \"dhawan_aaryan@hintz.net\",\n      \"gender\": \"female\",\n      \"status\": \"active\"\n    },\n    {\n      \"id\": 897841,\n      \"name\": \"Chandramohan Desai\",\n      \"email\": \"desai_chandramohan@nicolas.net\",\n      \"gender\": \"female\",\n      \"status\": \"active\"\n    },\n    {\n      \"id\": 897839,\n      \"name\": \"Kumuda Bharadwaj\",\n      \"email\": \"kumuda_bharadwaj@wyman.org\",\n      \"gender\": \"male\",\n      \"status\": \"active\"\n    },\n    {\n      \"id\": 873396,\n      \"name\": \"Chandrabhan Chattopadhyay\",\n      \"email\": \"chattopadhyay_chandrabhan@zemlak.io\",\n      \"gender\": \"female\",\n      \"status\": \"active\"\n    },\n    {\n      \"id\": 873389,\n      \"name\": \"Dr. Charvi Gupta\",\n      \"email\": \"gupta_dr_charvi@daugherty.co\",\n      \"gender\": \"female\",\n      \"status\": \"active\"\n    },\n    {\n      \"id\": 873388,\n      \"name\": \"Mr. Sher Tagore\",\n      \"email\": \"tagore_mr_sher@rosenbaum-dibbert.net\",\n      \"gender\": \"female\",\n      \"status\": \"active\"\n    }\n  ]\n}\n \n"},{"result":{"nanos":3668600,"millis":3.6686,"status":"passed"},"step":{"line":21,"prefix":"*","index":7,"text":"def userCount = jsonResponse.data.length"}},{"result":{"nanos":13800900,"errorMessage":"js failed:\n>>>>\n01: karate.log('[print]',userCout)\n<<<<\norg.graalvm.polyglot.PolyglotException: ReferenceError: \"userCout\" is not defined\n- <js>.:program(Unnamed:1)\n\nsrc\/test\/java\/examples\/users\/getapiwithquery.feature:22","millis":13.8009,"status":"failed"},"step":{"line":22,"prefix":"*","index":8,"text":"print userCout"},"stepLog":"11:23:05.331 src\/test\/java\/examples\/users\/getapiwithquery.feature:22\n* print userCout\njs failed:\n>>>>\n01: karate.log('[print]',userCout)\n<<<<\norg.graalvm.polyglot.PolyglotException: ReferenceError: \"userCout\" is not defined\n- <js>.:program(Unnamed:1)\n\nsrc\/test\/java\/examples\/users\/getapiwithquery.feature:22\n"}],"line":12,"description":"","durationMillis":420.6301,"failed":true,"error":"js failed:\n>>>>\n01: karate.log('[print]',userCout)\n<<<<\norg.graalvm.polyglot.PolyglotException: ReferenceError: \"userCout\" is not defined\n- <js>.:program(Unnamed:1)\n\nsrc\/test\/java\/examples\/users\/getapiwithquery.feature:22","executorName":"main","name":"get all active users and get count","startTime":1678341184907,"refId":"[2:12]","endTime":1678341185331,"exampleIndex":-1}],"callDepth":0,"name":"Get api with query parameters","description":"","resultDate":"2023-03-09 11:23:05 AM","durationMillis":1177.3147,"passedCount":1}