{"failedCount":1,"prefixedPath":"src\/test\/java\/examples\/users\/getapiwithquery.feature","packageQualifiedName":"src.test.java.examples.users.getapiwithquery","loopIndex":-1,"relativePath":"src\/test\/java\/examples\/users\/getapiwithquery.feature","scenarioResults":[{"sectionIndex":0,"stepResults":[{"result":{"nanos":42474000,"millis":42.474,"status":"passed"},"step":{"line":5,"prefix":"*","index":0,"text":"def query = {status:'active',gender:'male'}"},"stepLog":"11:24:31.940 karate.env system property was: null \n"},{"result":{"nanos":6179100,"millis":6.1791,"status":"passed"},"step":{"line":6,"prefix":"Given","index":1,"text":"url baseUrl+'\/public\/v1\/users'"}},{"result":{"nanos":5668500,"millis":5.6685,"status":"passed"},"step":{"line":7,"prefix":"And","index":2,"text":"params query"}},{"result":{"nanos":615724800,"millis":615.7248,"status":"passed"},"step":{"line":8,"prefix":"When","index":3,"text":"method Get"},"stepLog":"11:24:32.299 request:\n1 > GET https:\/\/gorest.co.in\/public\/v1\/users?gender=male&status=active\n1 > Host: gorest.co.in\n1 > Connection: Keep-Alive\n1 > User-Agent: Apache-HttpClient\/4.5.13 (Java\/17.0.4.1)\n1 > Accept-Encoding: gzip,deflate\n\n\n11:24:32.642 response time in milliseconds: 341\n1 < 200\n1 < Date: Thu, 09 Mar 2023 05:54:32 GMT\n1 < Content-Type: application\/json; charset=utf-8\n1 < Transfer-Encoding: chunked\n1 < Connection: keep-alive\n1 < Cache-Control: max-age=0, private, must-revalidate\n1 < etag: W\/\"fc772c78fd8868e40742cdb0d8a6fb15\"\n1 < referrer-policy: strict-origin-when-cross-origin\n1 < vary: Origin\n1 < x-content-type-options: nosniff\n1 < x-download-options: noopen\n1 < x-frame-options: SAMEORIGIN\n1 < x-permitted-cross-domain-policies: none\n1 < x-request-id: a4f9c3b3-cef0-4491-946f-13d01dc56bfa\n1 < x-runtime: 0.020969\n1 < x-xss-protection: 0\n1 < CF-Cache-Status: DYNAMIC\n1 < Report-To: {\"endpoints\":[{\"url\":\"https:\\\/\\\/a.nel.cloudflare.com\\\/report\\\/v3?s=n52mFCApv44ZR9B2su11cgAR3cNAaWgd%2FzJKv2cUf2EbrtipLX9NQRO0RZl%2FZucZYUdYeVkboTVeaUiQrE6BXxaHwGIKk5rVOZsXXoxYVN72fNP%2B7v%2BZdvuL9ecqKhE%3D\"}],\"group\":\"cf-nel\",\"max_age\":604800}\n1 < NEL: {\"success_fraction\":0,\"report_to\":\"cf-nel\",\"max_age\":604800}\n1 < Server: cloudflare\n1 < CF-RAY: 7a511059adfd6ecb-BOM\n1 < alt-svc: h3=\":443\"; ma=86400, h3-29=\":443\"; ma=86400\n{\"meta\":{\"pagination\":{\"total\":615,\"pages\":62,\"page\":1,\"limit\":10,\"links\":{\"previous\":null,\"current\":\"https:\/\/gorest.co.in\/public\/v1\/users?page=1\",\"next\":\"https:\/\/gorest.co.in\/public\/v1\/users?page=2\"}}},\"data\":[{\"id\":897852,\"name\":\"Nirbhay Tandon\",\"email\":\"nirbhay_tandon@schiller-effertz.info\",\"gender\":\"male\",\"status\":\"active\"},{\"id\":897851,\"name\":\"Kanak Prajapat\",\"email\":\"kanak_prajapat@hane.biz\",\"gender\":\"male\",\"status\":\"active\"},{\"id\":897848,\"name\":\"Anamika Gowda DVM\",\"email\":\"dvm_anamika_gowda@farrell.com\",\"gender\":\"male\",\"status\":\"active\"},{\"id\":897839,\"name\":\"Kumuda Bharadwaj\",\"email\":\"kumuda_bharadwaj@wyman.org\",\"gender\":\"male\",\"status\":\"active\"},{\"id\":872823,\"name\":\"Sen. Shobhana Pandey\",\"email\":\"shobhana_sen_pandey@cole.org\",\"gender\":\"male\",\"status\":\"active\"},{\"id\":872821,\"name\":\"Ojaswini Nayar\",\"email\":\"nayar_ojaswini@swaniawski.biz\",\"gender\":\"male\",\"status\":\"active\"},{\"id\":872820,\"name\":\"Amb. Dharani Jha\",\"email\":\"jha_amb_dharani@swift.io\",\"gender\":\"male\",\"status\":\"active\"},{\"id\":872819,\"name\":\"Bhadran Namboothiri\",\"email\":\"bhadran_namboothiri@powlowski.net\",\"gender\":\"male\",\"status\":\"active\"},{\"id\":872815,\"name\":\"Mayoor Ahuja\",\"email\":\"mayoor_ahuja@thompson-mcdermott.com\",\"gender\":\"male\",\"status\":\"active\"},{\"id\":872807,\"name\":\"Ritesh Dubashi\",\"email\":\"dubashi_ritesh@bashirian.name\",\"gender\":\"male\",\"status\":\"active\"}]}\n\n"},{"result":{"nanos":18400,"millis":0.0184,"status":"passed"},"step":{"line":9,"prefix":"Then","index":4,"text":"status 200"}},{"result":{"nanos":2332400,"millis":2.3324,"status":"passed"},"step":{"line":10,"prefix":"*","index":5,"text":"print response"},"stepLog":"11:24:32.648 [print] {\n  \"meta\": {\n    \"pagination\": {\n      \"total\": 615,\n      \"pages\": 62,\n      \"page\": 1,\n      \"limit\": 10,\n      \"links\": {\n        \"previous\": null,\n        \"current\": \"https:\/\/gorest.co.in\/public\/v1\/users?page=1\",\n        \"next\": \"https:\/\/gorest.co.in\/public\/v1\/users?page=2\"\n      }\n    }\n  },\n  \"data\": [\n    {\n      \"id\": 897852,\n      \"name\": \"Nirbhay Tandon\",\n      \"email\": \"nirbhay_tandon@schiller-effertz.info\",\n      \"gender\": \"male\",\n      \"status\": \"active\"\n    },\n    {\n      \"id\": 897851,\n      \"name\": \"Kanak Prajapat\",\n      \"email\": \"kanak_prajapat@hane.biz\",\n      \"gender\": \"male\",\n      \"status\": \"active\"\n    },\n    {\n      \"id\": 897848,\n      \"name\": \"Anamika Gowda DVM\",\n      \"email\": \"dvm_anamika_gowda@farrell.com\",\n      \"gender\": \"male\",\n      \"status\": \"active\"\n    },\n    {\n      \"id\": 897839,\n      \"name\": \"Kumuda Bharadwaj\",\n      \"email\": \"kumuda_bharadwaj@wyman.org\",\n      \"gender\": \"male\",\n      \"status\": \"active\"\n    },\n    {\n      \"id\": 872823,\n      \"name\": \"Sen. Shobhana Pandey\",\n      \"email\": \"shobhana_sen_pandey@cole.org\",\n      \"gender\": \"male\",\n      \"status\": \"active\"\n    },\n    {\n      \"id\": 872821,\n      \"name\": \"Ojaswini Nayar\",\n      \"email\": \"nayar_ojaswini@swaniawski.biz\",\n      \"gender\": \"male\",\n      \"status\": \"active\"\n    },\n    {\n      \"id\": 872820,\n      \"name\": \"Amb. Dharani Jha\",\n      \"email\": \"jha_amb_dharani@swift.io\",\n      \"gender\": \"male\",\n      \"status\": \"active\"\n    },\n    {\n      \"id\": 872819,\n      \"name\": \"Bhadran Namboothiri\",\n      \"email\": \"bhadran_namboothiri@powlowski.net\",\n      \"gender\": \"male\",\n      \"status\": \"active\"\n    },\n    {\n      \"id\": 872815,\n      \"name\": \"Mayoor Ahuja\",\n      \"email\": \"mayoor_ahuja@thompson-mcdermott.com\",\n      \"gender\": \"male\",\n      \"status\": \"active\"\n    },\n    {\n      \"id\": 872807,\n      \"name\": \"Ritesh Dubashi\",\n      \"email\": \"dubashi_ritesh@bashirian.name\",\n      \"gender\": \"male\",\n      \"status\": \"active\"\n    }\n  ]\n}\n \n"}],"executorName":"main","line":3,"name":"get all active users","description":"","durationMillis":672.3972,"startTime":1678341271745,"failed":false,"refId":"[1:3]","endTime":1678341272649,"exampleIndex":-1},{"sectionIndex":1,"stepResults":[{"result":{"nanos":209600,"millis":0.2096,"status":"passed"},"step":{"line":14,"prefix":"*","index":0,"text":"def query = {status:'active'}"},"stepLog":"11:24:32.654 karate.env system property was: null \n"},{"result":{"nanos":446500,"millis":0.4465,"status":"passed"},"step":{"line":15,"prefix":"Given","index":1,"text":"url baseUrl+'\/public\/v1\/users'"}},{"result":{"nanos":140600,"millis":0.1406,"status":"passed"},"step":{"line":16,"prefix":"And","index":2,"text":"params query"}},{"result":{"nanos":144957800,"millis":144.9578,"status":"passed"},"step":{"line":17,"prefix":"When","index":3,"text":"method Get"},"stepLog":"11:24:32.657 request:\n1 > GET https:\/\/gorest.co.in\/public\/v1\/users?status=active\n1 > Host: gorest.co.in\n1 > Connection: Keep-Alive\n1 > User-Agent: Apache-HttpClient\/4.5.13 (Java\/17.0.4.1)\n1 > Accept-Encoding: gzip,deflate\n\n\n11:24:32.799 response time in milliseconds: 142\n1 < 200\n1 < Date: Thu, 09 Mar 2023 05:54:32 GMT\n1 < Content-Type: application\/json; charset=utf-8\n1 < Transfer-Encoding: chunked\n1 < Connection: keep-alive\n1 < Cache-Control: max-age=0, private, must-revalidate\n1 < etag: W\/\"14358d2f3aaaa20913308f139e3e8b25\"\n1 < referrer-policy: strict-origin-when-cross-origin\n1 < vary: Origin\n1 < x-content-type-options: nosniff\n1 < x-download-options: noopen\n1 < x-frame-options: SAMEORIGIN\n1 < x-permitted-cross-domain-policies: none\n1 < x-request-id: 88102925-d23a-45e4-a3c5-f6162822bcc2\n1 < x-runtime: 0.021315\n1 < x-xss-protection: 0\n1 < CF-Cache-Status: DYNAMIC\n1 < Report-To: {\"endpoints\":[{\"url\":\"https:\\\/\\\/a.nel.cloudflare.com\\\/report\\\/v3?s=UY3c7B03WQ%2Bu1ueg1Lgt41zGcSoBKvWvHtJhbYSX05%2F6panWj9SpQq1m8Boxtb4GeUGTwwhK9BAbTkzVtislA7aw5zFOAcxtHUVIts00srscXJJsjEqVnb7xfSfhcCA%3D\"}],\"group\":\"cf-nel\",\"max_age\":604800}\n1 < NEL: {\"success_fraction\":0,\"report_to\":\"cf-nel\",\"max_age\":604800}\n1 < Server: cloudflare\n1 < CF-RAY: 7a51105a5f938528-BOM\n1 < alt-svc: h3=\":443\"; ma=86400, h3-29=\":443\"; ma=86400\n{\"meta\":{\"pagination\":{\"total\":1236,\"pages\":124,\"page\":1,\"limit\":10,\"links\":{\"previous\":null,\"current\":\"https:\/\/gorest.co.in\/public\/v1\/users?page=1\",\"next\":\"https:\/\/gorest.co.in\/public\/v1\/users?page=2\"}}},\"data\":[{\"id\":904396,\"name\":\"Gopee Nehru\",\"email\":\"gopee_nehru@kiehn.info\",\"gender\":\"female\",\"status\":\"active\"},{\"id\":897852,\"name\":\"Nirbhay Tandon\",\"email\":\"nirbhay_tandon@schiller-effertz.info\",\"gender\":\"male\",\"status\":\"active\"},{\"id\":897851,\"name\":\"Kanak Prajapat\",\"email\":\"kanak_prajapat@hane.biz\",\"gender\":\"male\",\"status\":\"active\"},{\"id\":897848,\"name\":\"Anamika Gowda DVM\",\"email\":\"dvm_anamika_gowda@farrell.com\",\"gender\":\"male\",\"status\":\"active\"},{\"id\":897843,\"name\":\"Aaryan Dhawan\",\"email\":\"dhawan_aaryan@hintz.net\",\"gender\":\"female\",\"status\":\"active\"},{\"id\":897841,\"name\":\"Chandramohan Desai\",\"email\":\"desai_chandramohan@nicolas.net\",\"gender\":\"female\",\"status\":\"active\"},{\"id\":897839,\"name\":\"Kumuda Bharadwaj\",\"email\":\"kumuda_bharadwaj@wyman.org\",\"gender\":\"male\",\"status\":\"active\"},{\"id\":873396,\"name\":\"Chandrabhan Chattopadhyay\",\"email\":\"chattopadhyay_chandrabhan@zemlak.io\",\"gender\":\"female\",\"status\":\"active\"},{\"id\":873389,\"name\":\"Dr. Charvi Gupta\",\"email\":\"gupta_dr_charvi@daugherty.co\",\"gender\":\"female\",\"status\":\"active\"},{\"id\":873388,\"name\":\"Mr. Sher Tagore\",\"email\":\"tagore_mr_sher@rosenbaum-dibbert.net\",\"gender\":\"female\",\"status\":\"active\"}]}\n\n"},{"result":{"nanos":18200,"millis":0.0182,"status":"passed"},"step":{"line":18,"prefix":"Then","index":4,"text":"status 200"}},{"result":{"nanos":1409900,"millis":1.4099,"status":"passed"},"step":{"line":19,"prefix":"*","index":5,"text":"def jsonResponse = response"}},{"result":{"nanos":2647100,"millis":2.6471,"status":"passed"},"step":{"line":20,"prefix":"*","index":6,"text":"print jsonResponse"},"stepLog":"11:24:32.805 [print] {\n  \"meta\": {\n    \"pagination\": {\n      \"total\": 1236,\n      \"pages\": 124,\n      \"page\": 1,\n      \"limit\": 10,\n      \"links\": {\n        \"previous\": null,\n        \"current\": \"https:\/\/gorest.co.in\/public\/v1\/users?page=1\",\n        \"next\": \"https:\/\/gorest.co.in\/public\/v1\/users?page=2\"\n      }\n    }\n  },\n  \"data\": [\n    {\n      \"id\": 904396,\n      \"name\": \"Gopee Nehru\",\n      \"email\": \"gopee_nehru@kiehn.info\",\n      \"gender\": \"female\",\n      \"status\": \"active\"\n    },\n    {\n      \"id\": 897852,\n      \"name\": \"Nirbhay Tandon\",\n      \"email\": \"nirbhay_tandon@schiller-effertz.info\",\n      \"gender\": \"male\",\n      \"status\": \"active\"\n    },\n    {\n      \"id\": 897851,\n      \"name\": \"Kanak Prajapat\",\n      \"email\": \"kanak_prajapat@hane.biz\",\n      \"gender\": \"male\",\n      \"status\": \"active\"\n    },\n    {\n      \"id\": 897848,\n      \"name\": \"Anamika Gowda DVM\",\n      \"email\": \"dvm_anamika_gowda@farrell.com\",\n      \"gender\": \"male\",\n      \"status\": \"active\"\n    },\n    {\n      \"id\": 897843,\n      \"name\": \"Aaryan Dhawan\",\n      \"email\": \"dhawan_aaryan@hintz.net\",\n      \"gender\": \"female\",\n      \"status\": \"active\"\n    },\n    {\n      \"id\": 897841,\n      \"name\": \"Chandramohan Desai\",\n      \"email\": \"desai_chandramohan@nicolas.net\",\n      \"gender\": \"female\",\n      \"status\": \"active\"\n    },\n    {\n      \"id\": 897839,\n      \"name\": \"Kumuda Bharadwaj\",\n      \"email\": \"kumuda_bharadwaj@wyman.org\",\n      \"gender\": \"male\",\n      \"status\": \"active\"\n    },\n    {\n      \"id\": 873396,\n      \"name\": \"Chandrabhan Chattopadhyay\",\n      \"email\": \"chattopadhyay_chandrabhan@zemlak.io\",\n      \"gender\": \"female\",\n      \"status\": \"active\"\n    },\n    {\n      \"id\": 873389,\n      \"name\": \"Dr. Charvi Gupta\",\n      \"email\": \"gupta_dr_charvi@daugherty.co\",\n      \"gender\": \"female\",\n      \"status\": \"active\"\n    },\n    {\n      \"id\": 873388,\n      \"name\": \"Mr. Sher Tagore\",\n      \"email\": \"tagore_mr_sher@rosenbaum-dibbert.net\",\n      \"gender\": \"female\",\n      \"status\": \"active\"\n    }\n  ]\n}\n \n"},{"result":{"nanos":4774900,"millis":4.7749,"status":"passed"},"step":{"line":21,"prefix":"*","index":7,"text":"def userCount = jsonResponse.data.length"}},{"result":{"nanos":934200,"millis":0.9342,"status":"passed"},"step":{"line":22,"prefix":"*","index":8,"text":"print userCount"},"stepLog":"11:24:32.811 [print] 10 \n"},{"result":{"nanos":10439400,"errorMessage":"match failed: EQUALS\n  $ | not equal (NUMBER:NUMBER)\n  10\n  20\n\nsrc\/test\/java\/examples\/users\/getapiwithquery.feature:23","millis":10.4394,"status":"failed"},"step":{"line":23,"prefix":"*","index":9,"text":"match userCount == 20"},"stepLog":"11:24:32.822 src\/test\/java\/examples\/users\/getapiwithquery.feature:23\n* match userCount == 20\nmatch failed: EQUALS\n  $ | not equal (NUMBER:NUMBER)\n  10\n  20\n\nsrc\/test\/java\/examples\/users\/getapiwithquery.feature:23\n"}],"line":12,"description":"","durationMillis":165.9782,"failed":true,"error":"match failed: EQUALS\n  $ | not equal (NUMBER:NUMBER)\n  10\n  20\n\nsrc\/test\/java\/examples\/users\/getapiwithquery.feature:23","executorName":"main","name":"get all active users and get count","startTime":1678341272652,"refId":"[2:12]","endTime":1678341272822,"exampleIndex":-1}],"callDepth":0,"name":"Get api with query parameters","description":"","resultDate":"2023-03-09 11:24:32 AM","durationMillis":838.3754,"passedCount":1}