{"failedCount":0,"prefixedPath":"src\/test\/java\/examples\/users\/getapiwithquery.feature","packageQualifiedName":"src.test.java.examples.users.getapiwithquery","loopIndex":-1,"relativePath":"src\/test\/java\/examples\/users\/getapiwithquery.feature","scenarioResults":[{"sectionIndex":0,"stepResults":[{"result":{"nanos":39334000,"millis":39.334,"status":"passed"},"step":{"line":5,"prefix":"*","index":0,"text":"def query = {status:'active',gender:'male'}"},"stepLog":"11:23:23.994 karate.env system property was: null \n"},{"result":{"nanos":6006100,"millis":6.0061,"status":"passed"},"step":{"line":6,"prefix":"Given","index":1,"text":"url baseUrl+'\/public\/v1\/users'"}},{"result":{"nanos":5429000,"millis":5.429,"status":"passed"},"step":{"line":7,"prefix":"And","index":2,"text":"params query"}},{"result":{"nanos":769457700,"millis":769.4577,"status":"passed"},"step":{"line":8,"prefix":"When","index":3,"text":"method Get"},"stepLog":"11:23:24.334 request:\n1 > GET https:\/\/gorest.co.in\/public\/v1\/users?gender=male&status=active\n1 > Host: gorest.co.in\n1 > Connection: Keep-Alive\n1 > User-Agent: Apache-HttpClient\/4.5.13 (Java\/17.0.4.1)\n1 > Accept-Encoding: gzip,deflate\n\n\n11:23:24.842 response time in milliseconds: 505\n1 < 200\n1 < Date: Thu, 09 Mar 2023 05:53:24 GMT\n1 < Content-Type: application\/json; charset=utf-8\n1 < Transfer-Encoding: chunked\n1 < Connection: keep-alive\n1 < Cache-Control: max-age=0, private, must-revalidate\n1 < etag: W\/\"fc772c78fd8868e40742cdb0d8a6fb15\"\n1 < referrer-policy: strict-origin-when-cross-origin\n1 < vary: Origin\n1 < x-content-type-options: nosniff\n1 < x-download-options: noopen\n1 < x-frame-options: SAMEORIGIN\n1 < x-permitted-cross-domain-policies: none\n1 < x-request-id: 087d4089-da74-4863-a181-eec0575c52a0\n1 < x-runtime: 0.026937\n1 < x-xss-protection: 0\n1 < CF-Cache-Status: DYNAMIC\n1 < Report-To: {\"endpoints\":[{\"url\":\"https:\\\/\\\/a.nel.cloudflare.com\\\/report\\\/v3?s=3IZck7AIG6U%2B0RGAI9ETtnUCEE53ytxLpO6lcdG2LLQWZr7Q3a8stabiiVDc1545Sb%2Bgps5Vv%2Fvbj1tqKn37rawYGKCp9rMAdnfHU%2FT5r9iCbuc4zPJpDJzlmhAtzGw%3D\"}],\"group\":\"cf-nel\",\"max_age\":604800}\n1 < NEL: {\"success_fraction\":0,\"report_to\":\"cf-nel\",\"max_age\":604800}\n1 < Server: cloudflare\n1 < CF-RAY: 7a510eb0ce4ba059-SIN\n1 < alt-svc: h3=\":443\"; ma=86400, h3-29=\":443\"; ma=86400\n{\"meta\":{\"pagination\":{\"total\":615,\"pages\":62,\"page\":1,\"limit\":10,\"links\":{\"previous\":null,\"current\":\"https:\/\/gorest.co.in\/public\/v1\/users?page=1\",\"next\":\"https:\/\/gorest.co.in\/public\/v1\/users?page=2\"}}},\"data\":[{\"id\":897852,\"name\":\"Nirbhay Tandon\",\"email\":\"nirbhay_tandon@schiller-effertz.info\",\"gender\":\"male\",\"status\":\"active\"},{\"id\":897851,\"name\":\"Kanak Prajapat\",\"email\":\"kanak_prajapat@hane.biz\",\"gender\":\"male\",\"status\":\"active\"},{\"id\":897848,\"name\":\"Anamika Gowda DVM\",\"email\":\"dvm_anamika_gowda@farrell.com\",\"gender\":\"male\",\"status\":\"active\"},{\"id\":897839,\"name\":\"Kumuda Bharadwaj\",\"email\":\"kumuda_bharadwaj@wyman.org\",\"gender\":\"male\",\"status\":\"active\"},{\"id\":872823,\"name\":\"Sen. Shobhana Pandey\",\"email\":\"shobhana_sen_pandey@cole.org\",\"gender\":\"male\",\"status\":\"active\"},{\"id\":872821,\"name\":\"Ojaswini Nayar\",\"email\":\"nayar_ojaswini@swaniawski.biz\",\"gender\":\"male\",\"status\":\"active\"},{\"id\":872820,\"name\":\"Amb. Dharani Jha\",\"email\":\"jha_amb_dharani@swift.io\",\"gender\":\"male\",\"status\":\"active\"},{\"id\":872819,\"name\":\"Bhadran Namboothiri\",\"email\":\"bhadran_namboothiri@powlowski.net\",\"gender\":\"male\",\"status\":\"active\"},{\"id\":872815,\"name\":\"Mayoor Ahuja\",\"email\":\"mayoor_ahuja@thompson-mcdermott.com\",\"gender\":\"male\",\"status\":\"active\"},{\"id\":872807,\"name\":\"Ritesh Dubashi\",\"email\":\"dubashi_ritesh@bashirian.name\",\"gender\":\"male\",\"status\":\"active\"}]}\n\n"},{"result":{"nanos":24600,"millis":0.0246,"status":"passed"},"step":{"line":9,"prefix":"Then","index":4,"text":"status 200"}},{"result":{"nanos":2416200,"millis":2.4162,"status":"passed"},"step":{"line":10,"prefix":"*","index":5,"text":"print response"},"stepLog":"11:23:24.849 [print] {\n  \"meta\": {\n    \"pagination\": {\n      \"total\": 615,\n      \"pages\": 62,\n      \"page\": 1,\n      \"limit\": 10,\n      \"links\": {\n        \"previous\": null,\n        \"current\": \"https:\/\/gorest.co.in\/public\/v1\/users?page=1\",\n        \"next\": \"https:\/\/gorest.co.in\/public\/v1\/users?page=2\"\n      }\n    }\n  },\n  \"data\": [\n    {\n      \"id\": 897852,\n      \"name\": \"Nirbhay Tandon\",\n      \"email\": \"nirbhay_tandon@schiller-effertz.info\",\n      \"gender\": \"male\",\n      \"status\": \"active\"\n    },\n    {\n      \"id\": 897851,\n      \"name\": \"Kanak Prajapat\",\n      \"email\": \"kanak_prajapat@hane.biz\",\n      \"gender\": \"male\",\n      \"status\": \"active\"\n    },\n    {\n      \"id\": 897848,\n      \"name\": \"Anamika Gowda DVM\",\n      \"email\": \"dvm_anamika_gowda@farrell.com\",\n      \"gender\": \"male\",\n      \"status\": \"active\"\n    },\n    {\n      \"id\": 897839,\n      \"name\": \"Kumuda Bharadwaj\",\n      \"email\": \"kumuda_bharadwaj@wyman.org\",\n      \"gender\": \"male\",\n      \"status\": \"active\"\n    },\n    {\n      \"id\": 872823,\n      \"name\": \"Sen. Shobhana Pandey\",\n      \"email\": \"shobhana_sen_pandey@cole.org\",\n      \"gender\": \"male\",\n      \"status\": \"active\"\n    },\n    {\n      \"id\": 872821,\n      \"name\": \"Ojaswini Nayar\",\n      \"email\": \"nayar_ojaswini@swaniawski.biz\",\n      \"gender\": \"male\",\n      \"status\": \"active\"\n    },\n    {\n      \"id\": 872820,\n      \"name\": \"Amb. Dharani Jha\",\n      \"email\": \"jha_amb_dharani@swift.io\",\n      \"gender\": \"male\",\n      \"status\": \"active\"\n    },\n    {\n      \"id\": 872819,\n      \"name\": \"Bhadran Namboothiri\",\n      \"email\": \"bhadran_namboothiri@powlowski.net\",\n      \"gender\": \"male\",\n      \"status\": \"active\"\n    },\n    {\n      \"id\": 872815,\n      \"name\": \"Mayoor Ahuja\",\n      \"email\": \"mayoor_ahuja@thompson-mcdermott.com\",\n      \"gender\": \"male\",\n      \"status\": \"active\"\n    },\n    {\n      \"id\": 872807,\n      \"name\": \"Ritesh Dubashi\",\n      \"email\": \"dubashi_ritesh@bashirian.name\",\n      \"gender\": \"male\",\n      \"status\": \"active\"\n    }\n  ]\n}\n \n"}],"executorName":"main","line":3,"name":"get all active users","description":"","durationMillis":822.6676,"startTime":1678341203820,"failed":false,"refId":"[1:3]","endTime":1678341204849,"exampleIndex":-1},{"sectionIndex":1,"stepResults":[{"result":{"nanos":336700,"millis":0.3367,"status":"passed"},"step":{"line":14,"prefix":"*","index":0,"text":"def query = {status:'active'}"},"stepLog":"11:23:24.855 karate.env system property was: null \n"},{"result":{"nanos":525800,"millis":0.5258,"status":"passed"},"step":{"line":15,"prefix":"Given","index":1,"text":"url baseUrl+'\/public\/v1\/users'"}},{"result":{"nanos":138600,"millis":0.1386,"status":"passed"},"step":{"line":16,"prefix":"And","index":2,"text":"params query"}},{"result":{"nanos":395848300,"millis":395.8483,"status":"passed"},"step":{"line":17,"prefix":"When","index":3,"text":"method Get"},"stepLog":"11:23:24.859 request:\n1 > GET https:\/\/gorest.co.in\/public\/v1\/users?status=active\n1 > Host: gorest.co.in\n1 > Connection: Keep-Alive\n1 > User-Agent: Apache-HttpClient\/4.5.13 (Java\/17.0.4.1)\n1 > Accept-Encoding: gzip,deflate\n\n\n11:23:25.252 response time in milliseconds: 392\n1 < 200\n1 < Date: Thu, 09 Mar 2023 05:53:25 GMT\n1 < Content-Type: application\/json; charset=utf-8\n1 < Transfer-Encoding: chunked\n1 < Connection: keep-alive\n1 < Cache-Control: max-age=0, private, must-revalidate\n1 < etag: W\/\"14358d2f3aaaa20913308f139e3e8b25\"\n1 < referrer-policy: strict-origin-when-cross-origin\n1 < vary: Origin\n1 < x-content-type-options: nosniff\n1 < x-download-options: noopen\n1 < x-frame-options: SAMEORIGIN\n1 < x-permitted-cross-domain-policies: none\n1 < x-request-id: 1b2fe0d9-05fc-4933-8917-2421c76ed6d4\n1 < x-runtime: 0.030535\n1 < x-xss-protection: 0\n1 < CF-Cache-Status: DYNAMIC\n1 < Report-To: {\"endpoints\":[{\"url\":\"https:\\\/\\\/a.nel.cloudflare.com\\\/report\\\/v3?s=HCCTjyvQfeRzS4w6zex90F72PztIVKx3UrRbuhCXq%2BPpKbmnkJi%2FAC6S%2F%2FbGfmKxAlwc5%2Fp7qI7Krlt00k%2BrBEguZS4fl%2Fry4iLtYC5yD22cbz%2FwuNGvYYjVJTFefGM%3D\"}],\"group\":\"cf-nel\",\"max_age\":604800}\n1 < NEL: {\"success_fraction\":0,\"report_to\":\"cf-nel\",\"max_age\":604800}\n1 < Server: cloudflare\n1 < CF-RAY: 7a510eb369e249ae-SIN\n1 < alt-svc: h3=\":443\"; ma=86400, h3-29=\":443\"; ma=86400\n{\"meta\":{\"pagination\":{\"total\":1236,\"pages\":124,\"page\":1,\"limit\":10,\"links\":{\"previous\":null,\"current\":\"https:\/\/gorest.co.in\/public\/v1\/users?page=1\",\"next\":\"https:\/\/gorest.co.in\/public\/v1\/users?page=2\"}}},\"data\":[{\"id\":904396,\"name\":\"Gopee Nehru\",\"email\":\"gopee_nehru@kiehn.info\",\"gender\":\"female\",\"status\":\"active\"},{\"id\":897852,\"name\":\"Nirbhay Tandon\",\"email\":\"nirbhay_tandon@schiller-effertz.info\",\"gender\":\"male\",\"status\":\"active\"},{\"id\":897851,\"name\":\"Kanak Prajapat\",\"email\":\"kanak_prajapat@hane.biz\",\"gender\":\"male\",\"status\":\"active\"},{\"id\":897848,\"name\":\"Anamika Gowda DVM\",\"email\":\"dvm_anamika_gowda@farrell.com\",\"gender\":\"male\",\"status\":\"active\"},{\"id\":897843,\"name\":\"Aaryan Dhawan\",\"email\":\"dhawan_aaryan@hintz.net\",\"gender\":\"female\",\"status\":\"active\"},{\"id\":897841,\"name\":\"Chandramohan Desai\",\"email\":\"desai_chandramohan@nicolas.net\",\"gender\":\"female\",\"status\":\"active\"},{\"id\":897839,\"name\":\"Kumuda Bharadwaj\",\"email\":\"kumuda_bharadwaj@wyman.org\",\"gender\":\"male\",\"status\":\"active\"},{\"id\":873396,\"name\":\"Chandrabhan Chattopadhyay\",\"email\":\"chattopadhyay_chandrabhan@zemlak.io\",\"gender\":\"female\",\"status\":\"active\"},{\"id\":873389,\"name\":\"Dr. Charvi Gupta\",\"email\":\"gupta_dr_charvi@daugherty.co\",\"gender\":\"female\",\"status\":\"active\"},{\"id\":873388,\"name\":\"Mr. Sher Tagore\",\"email\":\"tagore_mr_sher@rosenbaum-dibbert.net\",\"gender\":\"female\",\"status\":\"active\"}]}\n\n"},{"result":{"nanos":17800,"millis":0.0178,"status":"passed"},"step":{"line":18,"prefix":"Then","index":4,"text":"status 200"}},{"result":{"nanos":605500,"millis":0.6055,"status":"passed"},"step":{"line":19,"prefix":"*","index":5,"text":"def jsonResponse = response"}},{"result":{"nanos":1527400,"millis":1.5274,"status":"passed"},"step":{"line":20,"prefix":"*","index":6,"text":"print jsonResponse"},"stepLog":"11:23:25.256 [print] {\n  \"meta\": {\n    \"pagination\": {\n      \"total\": 1236,\n      \"pages\": 124,\n      \"page\": 1,\n      \"limit\": 10,\n      \"links\": {\n        \"previous\": null,\n        \"current\": \"https:\/\/gorest.co.in\/public\/v1\/users?page=1\",\n        \"next\": \"https:\/\/gorest.co.in\/public\/v1\/users?page=2\"\n      }\n    }\n  },\n  \"data\": [\n    {\n      \"id\": 904396,\n      \"name\": \"Gopee Nehru\",\n      \"email\": \"gopee_nehru@kiehn.info\",\n      \"gender\": \"female\",\n      \"status\": \"active\"\n    },\n    {\n      \"id\": 897852,\n      \"name\": \"Nirbhay Tandon\",\n      \"email\": \"nirbhay_tandon@schiller-effertz.info\",\n      \"gender\": \"male\",\n      \"status\": \"active\"\n    },\n    {\n      \"id\": 897851,\n      \"name\": \"Kanak Prajapat\",\n      \"email\": \"kanak_prajapat@hane.biz\",\n      \"gender\": \"male\",\n      \"status\": \"active\"\n    },\n    {\n      \"id\": 897848,\n      \"name\": \"Anamika Gowda DVM\",\n      \"email\": \"dvm_anamika_gowda@farrell.com\",\n      \"gender\": \"male\",\n      \"status\": \"active\"\n    },\n    {\n      \"id\": 897843,\n      \"name\": \"Aaryan Dhawan\",\n      \"email\": \"dhawan_aaryan@hintz.net\",\n      \"gender\": \"female\",\n      \"status\": \"active\"\n    },\n    {\n      \"id\": 897841,\n      \"name\": \"Chandramohan Desai\",\n      \"email\": \"desai_chandramohan@nicolas.net\",\n      \"gender\": \"female\",\n      \"status\": \"active\"\n    },\n    {\n      \"id\": 897839,\n      \"name\": \"Kumuda Bharadwaj\",\n      \"email\": \"kumuda_bharadwaj@wyman.org\",\n      \"gender\": \"male\",\n      \"status\": \"active\"\n    },\n    {\n      \"id\": 873396,\n      \"name\": \"Chandrabhan Chattopadhyay\",\n      \"email\": \"chattopadhyay_chandrabhan@zemlak.io\",\n      \"gender\": \"female\",\n      \"status\": \"active\"\n    },\n    {\n      \"id\": 873389,\n      \"name\": \"Dr. Charvi Gupta\",\n      \"email\": \"gupta_dr_charvi@daugherty.co\",\n      \"gender\": \"female\",\n      \"status\": \"active\"\n    },\n    {\n      \"id\": 873388,\n      \"name\": \"Mr. Sher Tagore\",\n      \"email\": \"tagore_mr_sher@rosenbaum-dibbert.net\",\n      \"gender\": \"female\",\n      \"status\": \"active\"\n    }\n  ]\n}\n \n"},{"result":{"nanos":4973600,"millis":4.9736,"status":"passed"},"step":{"line":21,"prefix":"*","index":7,"text":"def userCount = jsonResponse.data.length"}},{"result":{"nanos":1500300,"millis":1.5003,"status":"passed"},"step":{"line":22,"prefix":"*","index":8,"text":"print userCount"},"stepLog":"11:23:25.262 [print] 10 \n"}],"executorName":"main","line":12,"name":"get all active users and get count","description":"","durationMillis":405.474,"startTime":1678341204854,"failed":false,"refId":"[2:12]","endTime":1678341205262,"exampleIndex":-1}],"callDepth":0,"name":"Get api with query parameters","description":"","resultDate":"2023-03-09 11:23:25 AM","durationMillis":1228.1416,"passedCount":2}