{"failedCount":0,"prefixedPath":"src\/test\/java\/examples\/users\/getapiwithquery.feature","packageQualifiedName":"src.test.java.examples.users.getapiwithquery","loopIndex":-1,"relativePath":"src\/test\/java\/examples\/users\/getapiwithquery.feature","scenarioResults":[{"sectionIndex":0,"stepResults":[{"result":{"nanos":46043400,"millis":46.0434,"status":"passed"},"step":{"line":5,"prefix":"*","index":0,"text":"def query = {status:'active',gender:'male'}"},"stepLog":"11:17:27.014 karate.env system property was: null \n"},{"result":{"nanos":6889000,"millis":6.889,"status":"passed"},"step":{"line":6,"prefix":"Given","index":1,"text":"url baseUrl+'\/public\/v1\/users'"}},{"result":{"nanos":5717600,"millis":5.7176,"status":"passed"},"step":{"line":7,"prefix":"And","index":2,"text":"params query"}},{"result":{"nanos":672722800,"millis":672.7228,"status":"passed"},"step":{"line":8,"prefix":"When","index":3,"text":"method Get"},"stepLog":"11:17:27.382 request:\n1 > GET https:\/\/gorest.co.in\/public\/v1\/users?gender=male&status=active\n1 > Host: gorest.co.in\n1 > Connection: Keep-Alive\n1 > User-Agent: Apache-HttpClient\/4.5.13 (Java\/17.0.4.1)\n1 > Accept-Encoding: gzip,deflate\n\n\n11:17:27.778 response time in milliseconds: 394\n1 < 200\n1 < Date: Thu, 09 Mar 2023 05:47:27 GMT\n1 < Content-Type: application\/json; charset=utf-8\n1 < Transfer-Encoding: chunked\n1 < Connection: keep-alive\n1 < Cache-Control: max-age=0, private, must-revalidate\n1 < etag: W\/\"fc772c78fd8868e40742cdb0d8a6fb15\"\n1 < referrer-policy: strict-origin-when-cross-origin\n1 < vary: Origin\n1 < x-content-type-options: nosniff\n1 < x-download-options: noopen\n1 < x-frame-options: SAMEORIGIN\n1 < x-permitted-cross-domain-policies: none\n1 < x-request-id: c3b6db1c-e707-4777-8107-3ac34381dcc3\n1 < x-runtime: 0.023953\n1 < x-xss-protection: 0\n1 < CF-Cache-Status: DYNAMIC\n1 < Report-To: {\"endpoints\":[{\"url\":\"https:\\\/\\\/a.nel.cloudflare.com\\\/report\\\/v3?s=jocBh0ptppG2I8BIMKApIhqr9ObbxHsAlSV3KgrU4nuXB7v7nHhzxzrVXBB7barwXtGqt8RlAANxiMqmPyv4ChtJFN5uaU4CFevt4fqMAfZAvcW6rKlIe%2BQS2ZuZRhU%3D\"}],\"group\":\"cf-nel\",\"max_age\":604800}\n1 < NEL: {\"success_fraction\":0,\"report_to\":\"cf-nel\",\"max_age\":604800}\n1 < Server: cloudflare\n1 < CF-RAY: 7a5105f9cdcb9fdf-SIN\n1 < alt-svc: h3=\":443\"; ma=86400, h3-29=\":443\"; ma=86400\n{\"meta\":{\"pagination\":{\"total\":615,\"pages\":62,\"page\":1,\"limit\":10,\"links\":{\"previous\":null,\"current\":\"https:\/\/gorest.co.in\/public\/v1\/users?page=1\",\"next\":\"https:\/\/gorest.co.in\/public\/v1\/users?page=2\"}}},\"data\":[{\"id\":897852,\"name\":\"Nirbhay Tandon\",\"email\":\"nirbhay_tandon@schiller-effertz.info\",\"gender\":\"male\",\"status\":\"active\"},{\"id\":897851,\"name\":\"Kanak Prajapat\",\"email\":\"kanak_prajapat@hane.biz\",\"gender\":\"male\",\"status\":\"active\"},{\"id\":897848,\"name\":\"Anamika Gowda DVM\",\"email\":\"dvm_anamika_gowda@farrell.com\",\"gender\":\"male\",\"status\":\"active\"},{\"id\":897839,\"name\":\"Kumuda Bharadwaj\",\"email\":\"kumuda_bharadwaj@wyman.org\",\"gender\":\"male\",\"status\":\"active\"},{\"id\":872823,\"name\":\"Sen. Shobhana Pandey\",\"email\":\"shobhana_sen_pandey@cole.org\",\"gender\":\"male\",\"status\":\"active\"},{\"id\":872821,\"name\":\"Ojaswini Nayar\",\"email\":\"nayar_ojaswini@swaniawski.biz\",\"gender\":\"male\",\"status\":\"active\"},{\"id\":872820,\"name\":\"Amb. Dharani Jha\",\"email\":\"jha_amb_dharani@swift.io\",\"gender\":\"male\",\"status\":\"active\"},{\"id\":872819,\"name\":\"Bhadran Namboothiri\",\"email\":\"bhadran_namboothiri@powlowski.net\",\"gender\":\"male\",\"status\":\"active\"},{\"id\":872815,\"name\":\"Mayoor Ahuja\",\"email\":\"mayoor_ahuja@thompson-mcdermott.com\",\"gender\":\"male\",\"status\":\"active\"},{\"id\":872807,\"name\":\"Ritesh Dubashi\",\"email\":\"dubashi_ritesh@bashirian.name\",\"gender\":\"male\",\"status\":\"active\"}]}\n\n"},{"result":{"nanos":18800,"millis":0.0188,"status":"passed"},"step":{"line":9,"prefix":"Then","index":4,"text":"status 200"}},{"result":{"nanos":2692800,"millis":2.6928,"status":"passed"},"step":{"line":10,"prefix":"*","index":5,"text":"print response"},"stepLog":"11:17:27.784 [print] {\n  \"meta\": {\n    \"pagination\": {\n      \"total\": 615,\n      \"pages\": 62,\n      \"page\": 1,\n      \"limit\": 10,\n      \"links\": {\n        \"previous\": null,\n        \"current\": \"https:\/\/gorest.co.in\/public\/v1\/users?page=1\",\n        \"next\": \"https:\/\/gorest.co.in\/public\/v1\/users?page=2\"\n      }\n    }\n  },\n  \"data\": [\n    {\n      \"id\": 897852,\n      \"name\": \"Nirbhay Tandon\",\n      \"email\": \"nirbhay_tandon@schiller-effertz.info\",\n      \"gender\": \"male\",\n      \"status\": \"active\"\n    },\n    {\n      \"id\": 897851,\n      \"name\": \"Kanak Prajapat\",\n      \"email\": \"kanak_prajapat@hane.biz\",\n      \"gender\": \"male\",\n      \"status\": \"active\"\n    },\n    {\n      \"id\": 897848,\n      \"name\": \"Anamika Gowda DVM\",\n      \"email\": \"dvm_anamika_gowda@farrell.com\",\n      \"gender\": \"male\",\n      \"status\": \"active\"\n    },\n    {\n      \"id\": 897839,\n      \"name\": \"Kumuda Bharadwaj\",\n      \"email\": \"kumuda_bharadwaj@wyman.org\",\n      \"gender\": \"male\",\n      \"status\": \"active\"\n    },\n    {\n      \"id\": 872823,\n      \"name\": \"Sen. Shobhana Pandey\",\n      \"email\": \"shobhana_sen_pandey@cole.org\",\n      \"gender\": \"male\",\n      \"status\": \"active\"\n    },\n    {\n      \"id\": 872821,\n      \"name\": \"Ojaswini Nayar\",\n      \"email\": \"nayar_ojaswini@swaniawski.biz\",\n      \"gender\": \"male\",\n      \"status\": \"active\"\n    },\n    {\n      \"id\": 872820,\n      \"name\": \"Amb. Dharani Jha\",\n      \"email\": \"jha_amb_dharani@swift.io\",\n      \"gender\": \"male\",\n      \"status\": \"active\"\n    },\n    {\n      \"id\": 872819,\n      \"name\": \"Bhadran Namboothiri\",\n      \"email\": \"bhadran_namboothiri@powlowski.net\",\n      \"gender\": \"male\",\n      \"status\": \"active\"\n    },\n    {\n      \"id\": 872815,\n      \"name\": \"Mayoor Ahuja\",\n      \"email\": \"mayoor_ahuja@thompson-mcdermott.com\",\n      \"gender\": \"male\",\n      \"status\": \"active\"\n    },\n    {\n      \"id\": 872807,\n      \"name\": \"Ritesh Dubashi\",\n      \"email\": \"dubashi_ritesh@bashirian.name\",\n      \"gender\": \"male\",\n      \"status\": \"active\"\n    }\n  ]\n}\n \n"}],"executorName":"main","line":3,"name":"get all active users","description":"","durationMillis":734.0844,"startTime":1678340846839,"failed":false,"refId":"[1:3]","endTime":1678340847785,"exampleIndex":-1}],"callDepth":0,"name":"Get api with query parameters","description":"","resultDate":"2023-03-09 11:17:27 AM","durationMillis":734.0844,"passedCount":1}